{
    "name": "ItsTheConnection.UIBeautify.Runtime",
    "rootNamespace": "",
    "references": [
        "UnityEngine.UI",
        "Unity.TextMeshPro"
    ],
    "includePlatforms": [],
    "excludePlatforms": [],
    "allowUnsafeCode": false,
    "overrideReferences": false,
    "precompiledReferences": [],
    "autoReferenced": true,
    "defineConstraints": [],
    "versionDefines": [
        {
            "name": "com.unity.textmeshpro",
            "expression": "",
            "define": "TEXT_MESH_PRO"
        }
    ],
    "noEngineReferences": false
}